\relax 
\citation{MMOGames1}
\bibstyle{plain}
\bibdata{ref}
\bibcite{MMOGames1}{1}
\@writefile{toc}{\contentsline {section}{\numberline {1}Introduction}{1}{}\protected@file@percent }
\@writefile{toc}{\contentsline {section}{\numberline {2}Application Layer}{1}{}\protected@file@percent }
\@writefile{toc}{\contentsline {subsection}{\numberline {2.1}Model-View-Controller pattern}{1}{}\protected@file@percent }
\@writefile{toc}{\contentsline {subsection}{\numberline {2.2}Utilities}{1}{}\protected@file@percent }
\@writefile{toc}{\contentsline {subsection}{\numberline {2.3}Inputs}{1}{}\protected@file@percent }
\@writefile{toc}{\contentsline {section}{\numberline {3}Domain Layer}{2}{}\protected@file@percent }
\@writefile{toc}{\contentsline {section}{\numberline {4}Problems}{2}{}\protected@file@percent }
\@writefile{toc}{\contentsline {subsection}{\numberline {4.1}Major Problem}{2}{}\protected@file@percent }
\@writefile{toc}{\contentsline {subsection}{\numberline {4.2}Minor Problems}{2}{}\protected@file@percent }
\@writefile{toc}{\contentsline {section}{\numberline {5}Structures}{2}{}\protected@file@percent }
\@writefile{toc}{\contentsline {section}{\numberline {6}Functionality}{2}{}\protected@file@percent }
\@writefile{toc}{\contentsline {section}{\numberline {7}Changing}{2}{}\protected@file@percent }
\@writefile{toc}{\contentsline {section}{\numberline {8}Optimization}{2}{}\protected@file@percent }
\gdef \@abspage@last{2}
