{
    "name": "ChessGame",
    "rootNamespace": "",
    "references": [
        "GUID:754232a0c221f04429333d30c0fc9336",
        "GUID:3ab4a24444c66264aa75ecfa9653fa76",
        "GUID:09606002942a35e48b724556e23cdbc6",
        "GUID:81f798051da158044b28d8ad9ea26a47",
        "GUID:75469ad4d38634e559750d17036d5f7c",
        "GUID:29b5158209a855b4dbc26ca793a35e5c",
        "GUID:2b6d26b8322a8b74abb1b2a1b40fd449",
        "GUID:069e9a912ef30c042b1dc18e0e909c39",
        "GUID:c524486eda7e69340a1084a901811402",
        "GUID:3f46889ee67cd554095267147f72553e",
        "GUID:734d92eba21c94caba915361bd5ac177",
        "GUID:e0cd26848372d4e5c891c569017e11f1",
        "GUID:7a450cf7ca9694b5a8bfa3fd83ec635a",
        "GUID:a5baed0c9693541a5bd947d336ec7659",
        "GUID:e75cbf79cf0f53245b51dea9612347af",
        "GUID:63afb046c8423dd448ae7aba042ea63d",
        "GUID:d8b63aba1907145bea998dd612889d6b",
        "GUID:1dbcfd3cff681664cab377adf461f734",
        "GUID:777f57325b18db342bdd2602cebeb045",
        "GUID:56109bcc1bc429b4dbdbdaa3ecabeed5",
        "GUID:2266798acd9f5574bab577319125a831",
        "GUID:860b5b24f92a47f46a7f06703831e9f2",
        "GUID:beff2ddae9719e14cb043c73ba32ef30",
        "GUID:3d9e500bf95f36f40895123e53f9f6b0"
    ],
    "includePlatforms": [],
    "excludePlatforms": [],
    "allowUnsafeCode": false,
    "overrideReferences": false,
    "precompiledReferences": [],
    "autoReferenced": true,
    "defineConstraints": [],
    "versionDefines": [],
    "noEngineReferences": false
}