\begin{thebibliography}{1}

\bibitem{MMOGames1}
DANIEL BAUER, ILIAS ILIADIS, SEAN ROONEY, and PAOLO SCOTTON.
\newblock Communication architectures for massive multi-player games.
\newblock {\em Multimedia Tools and Applications}, 23(1):47–66, May 2004.

\end{thebibliography}
