\relax 
\citation{MMOGames1}
\@writefile{toc}{\contentsline {section}{\numberline {1}Introduction}{1}{}\protected@file@percent }
\@writefile{toc}{\contentsline {section}{\numberline {2}Solutions}{1}{}\protected@file@percent }
\@writefile{toc}{\contentsline {subsection}{\numberline {2.1}Providing states along with component system}{1}{}\protected@file@percent }
\@writefile{toc}{\contentsline {subsection}{\numberline {2.2}Predefined rules}{1}{}\protected@file@percent }
\@writefile{toc}{\contentsline {subsection}{\numberline {2.3}Each action alter its effect}{2}{}\protected@file@percent }
\@writefile{toc}{\contentsline {subsection}{\numberline {2.4}The Result}{2}{}\protected@file@percent }
\@writefile{toc}{\contentsline {section}{\numberline {3}Rule Base Design}{2}{}\protected@file@percent }
\@writefile{toc}{\contentsline {subsection}{\numberline {3.1}States}{2}{}\protected@file@percent }
\bibstyle{plain}
\bibdata{ref}
\bibcite{MMOGames1}{1}
\gdef \@abspage@last{3}
