{
    "name": "ExtendedInputSystem",
    "rootNamespace": "BG.EISystem",
    "references": [
        "GUID:75469ad4d38634e559750d17036d5f7c",
        "GUID:3ab4a24444c66264aa75ecfa9653fa76"
    ],
    "includePlatforms": [],
    "excludePlatforms": [],
    "allowUnsafeCode": false,
    "overrideReferences": false,
    "precompiledReferences": [],
    "autoReferenced": true,
    "defineConstraints": [],
    "versionDefines": [],
    "noEngineReferences": false
}