\relax 
\citation{MMOGames1}
\citation{MMOGames1}
\@writefile{toc}{\contentsline {section}{\numberline {1}Introduction}{1}{}\protected@file@percent }
\@writefile{toc}{\contentsline {section}{\numberline {2}Abilities Pattern}{1}{}\protected@file@percent }
\@writefile{toc}{\contentsline {subsection}{\numberline {2.1}Problems that need to be solved}{2}{}\protected@file@percent }
\@writefile{toc}{\contentsline {section}{\numberline {3}Options Pattern}{2}{}\protected@file@percent }
\@writefile{toc}{\contentsline {section}{\numberline {4}Entity-System visitor pattern}{2}{}\protected@file@percent }
\bibstyle{plain}
\bibdata{ref}
\bibcite{MMOGames1}{1}
\gdef \@abspage@last{3}
