\relax 
\citation{MMOGames1}
\@writefile{toc}{\contentsline {section}{\numberline {1}Goals}{1}{}\protected@file@percent }
\@writefile{toc}{\contentsline {section}{\numberline {2}Application Layer}{1}{}\protected@file@percent }
\@writefile{toc}{\contentsline {subsection}{\numberline {2.1}Model-View-Controller pattern}{1}{}\protected@file@percent }
\@writefile{toc}{\contentsline {subsection}{\numberline {2.2}Utilities}{1}{}\protected@file@percent }
\@writefile{toc}{\contentsline {section}{\numberline {3}Descriptions}{1}{}\protected@file@percent }
\@writefile{toc}{\contentsline {section}{\numberline {4}Diagrams}{2}{}\protected@file@percent }
\@writefile{lof}{\contentsline {figure}{\numberline {1}{\ignorespaces Overall view of structural pattern 3}}{2}{}\protected@file@percent }
\newlabel{structuralpattern2}{{1}{2}}
\bibstyle{plain}
\bibdata{ref}
\bibcite{MMOGames1}{1}
\@writefile{toc}{\contentsline {section}{\numberline {5}Samples}{3}{}\protected@file@percent }
\@writefile{toc}{\contentsline {section}{\numberline {6}Optimization}{3}{}\protected@file@percent }
\gdef \@abspage@last{3}
