{
    "name": "PlayerSystemDomain",
    "rootNamespace": "BG.PlayerSystem.Domain",
    "references": [
        "GUID:3ab4a24444c66264aa75ecfa9653fa76"
    ],
    "includePlatforms": [],
    "excludePlatforms": [],
    "allowUnsafeCode": false,
    "overrideReferences": false,
    "precompiledReferences": [],
    "autoReferenced": true,
    "defineConstraints": [],
    "versionDefines": [],
    "noEngineReferences": false
}